{
  "project_info": {
    "project_number": "854113471004",
    "firebase_url": "https://fir-authentication-5111d.firebaseio.com",
    "project_id": "fir-authentication-5111d",
    "storage_bucket": "fir-authentication-5111d.appspot.com"
  },
  "client": [
    {
      "client_info": {
        "mobilesdk_app_id": "1:854113471004:android:92360d51587835db8e6dd9",
        "android_client_info": {
          "package_name": "br.ifsc.edu.firebaseauthentication"
        }
      },
      "oauth_client": [
        {
          "client_id": "854113471004-pr8mj5o1q861o5enmi0sua33f6ir98vd.apps.googleusercontent.com",
          "client_type": 1,
          "android_info": {
            "package_name": "br.ifsc.edu.firebaseauthentication",
            "certificate_hash": "bec76724069a30dd491ec36d7ee0be808b79c941"
          }
        },
        {
          "client_id": "854113471004-1fvs4u3cll7r45s66hicqpqj5mud210k.apps.googleusercontent.com",
          "client_type": 3
        }
      ],
      "api_key": [
        {
          "current_key": "AIzaSyAqkZwVXBig9kDlrSqjz0NKyjFqS4BrZPU"
        }
      ],
      "services": {
        "appinvite_service": {
          "other_platform_oauth_client": [
            {
              "client_id": "854113471004-1fvs4u3cll7r45s66hicqpqj5mud210k.apps.googleusercontent.com",
              "client_type": 3
            }
          ]
        }
      }
    }
  ],
  "configuration_version": "1"
}